{
  "ignore": [
    "**/*.test.ts",
    "**/*.spec.ts",
    ".git",
    "node_modules"
  ],
  "watch": [
    "server/**/*.ts"
  ],
  "exec": "ts-node --project server/tsconfig.json server/server.ts",
  "ext": "ts"
}
