{
  "type": "postgres",
  "host": "localhost",
  "port": 5432,
  "username": "test",
  "password": "test",
  "database": "test_identity",
  "synchronize": true,
  "logging": false,
  "entities": [
    "server/entities/**/*.ts"
  ],
  "migrations": [
    "server/migrations/**/*.ts"
  ],
  "subscribers": [
    "server/subscribers/**/*.ts"
  ],
  "cli": {
    "entitiesDir": "server/entities",
    "migrationsDir": "server/migrations",
    "subscribersDir": "server/subscribers"
  }
}
